'
' AV Protocol defines per TOS.HYP (lp)
va_confont&=&H4715
va_consoleopen&=&H4719
va_copy_complete&=&H4729
va_dragaccwind&=&H4725
va_drag_complete&=&H4735
va_filechanged&=&H4754
va_filecopied&=&H4756
va_filedeleted&=&H4758
va_filefont&=&H4713
va_fontchanged&=&H4739
va_object&=&H4717
va_path_update&=&H4760
va_progstart&=&H4723
va_protostatus&=&H4701
va_setstatus&=&H4705
va_start&=&H4711
va_that_izit&=&H4733
va_viewed&=&H4752
va_windopen&=&H4721
va_xopen&=&H4741
'
